<?xml version="1.0" encoding="UTF-8"?>
<!-- Created with Inkscape (http://www.inkscape.org/) -->
<svg width="154.56mm" height="154.56mm" version="1.1" viewBox="0 0 154.56 154.56" xmlns="http://www.w3.org/2000/svg">
 <g transform="translate(-31.394 -72.742)" fill="none" stroke="#fff" stroke-linecap="square">
  <path transform="translate(-49.717 -45.505)" x="83.976433" y="121.11211" width="29.765743" height="29.765743" d="m83.976 121.11h29.766v29.766h-29.766zm29.766 0h29.766v29.766h-29.766zm29.766 0h29.766v29.766h-29.766zm29.766 0h29.766v29.766h-29.766zm29.766 0h29.766v29.766h-29.766zm-119.06 29.766h29.766v29.766h-29.766zm29.766 0h29.766v29.766h-29.766zm29.766 0h29.766v29.766h-29.766zm29.766 0h29.766v29.766h-29.766zm29.766 0h29.766v29.766h-29.766zm-119.06 29.766h29.766v29.766h-29.766zm29.766 0h29.766v29.766h-29.766zm29.766 0h29.766v29.766h-29.766zm29.766 0h29.766v29.766h-29.766zm29.766 0h29.766v29.766h-29.766zm-119.06 29.766h29.766v29.766h-29.766zm29.766 0h29.766v29.766h-29.766zm29.766 0h29.766v29.766h-29.766zm29.766 0h29.766v29.766h-29.766zm29.766 0h29.766v29.766h-29.766zm-119.06 29.766h29.766v29.766h-29.766zm29.766 0h29.766v29.766h-29.766zm29.766 0h29.766v29.766h-29.766zm29.766 0h29.766v29.766h-29.766zm29.766 0h29.766v29.766h-29.766z" stroke-width="2.865"/>
  <path d="m34.414 224.28h148.52v-148.52h-148.52c0 49.507 1e-6 99.013 0 148.52z" stroke-width="6.465"/>
 </g>
</svg>
