<?xml version="1.0" encoding="UTF-8"?>
<!-- Created with Inkscape (http://www.inkscape.org/) -->
<svg width="154.56mm" height="154.56mm" version="1.1" viewBox="0 0 154.56 154.56" xmlns="http://www.w3.org/2000/svg">
 <g transform="translate(-31.394 -72.742)" stroke-linecap="square">
  <path transform="translate(-49.717 -45.505)" x="83.976433" y="121.11211" width="29.765743" height="29.765743" d="m83.976 121.11h29.766v29.766h-29.766zm29.766 0h29.766v29.766h-29.766zm29.766 0h29.766v29.766h-29.766zm29.766 0h29.766v29.766h-29.766zm29.766 0h29.766v29.766h-29.766zm-119.06 29.766h29.766v29.766h-29.766zm29.766 0h29.766v29.766h-29.766zm29.766 0h29.766v29.766h-29.766zm29.766 0h29.766v29.766h-29.766zm29.766 0h29.766v29.766h-29.766zm-119.06 29.766h29.766v29.766h-29.766zm29.766 0h29.766v29.766h-29.766zm29.766 0h29.766v29.766h-29.766zm29.766 0h29.766v29.766h-29.766zm29.766 0h29.766v29.766h-29.766zm-119.06 29.766h29.766v29.766h-29.766zm29.766 0h29.766v29.766h-29.766zm29.766 0h29.766v29.766h-29.766zm29.766 0h29.766v29.766h-29.766zm29.766 0h29.766v29.766h-29.766zm-119.06 29.766h29.766v29.766h-29.766zm29.766 0h29.766v29.766h-29.766zm29.766 0h29.766v29.766h-29.766zm29.766 0h29.766v29.766h-29.766zm29.766 0h29.766v29.766h-29.766z" fill="none" stroke="#fff" stroke-width="2.865"/>
  <path d="m34.414 224.28h148.52v-148.52h-148.52c0 49.507 1e-6 99.013 0 148.52z" fill="none" stroke="#fff" stroke-width="6.465"/>
  <rect x="64.025" y="105.37" width="29.979" height="29.997" fill="#ff0068" stroke="#000" stroke-width="2.665"/>
  <rect x="123.58" y="164.8" width="29.758" height="29.949" fill="#00ffae" stroke="#000" stroke-width="2.665"/>
 </g>
</svg>
