<?xml version="1.0" encoding="UTF-8" standalone="no"?>
<!-- Uploaded to: SVG Repo, www.svgrepo.com, Generator: SVG Repo Mixer Tools -->

<svg
   fill="#000000"
   version="1.1"
   id="Layer_1"
   viewBox="0 0 512 512"
   xml:space="preserve"
   sodipodi:docname="house-svgrepo-com.svg"
   inkscape:version="1.3 (0e150ed6c4, 2023-07-21)"
   xmlns:inkscape="http://www.inkscape.org/namespaces/inkscape"
   xmlns:sodipodi="http://sodipodi.sourceforge.net/DTD/sodipodi-0.dtd"
   xmlns="http://www.w3.org/2000/svg"
   xmlns:svg="http://www.w3.org/2000/svg"><defs
   id="defs4" /><sodipodi:namedview
   id="namedview4"
   pagecolor="#ffffff"
   bordercolor="#000000"
   borderopacity="0.25"
   inkscape:showpageshadow="2"
   inkscape:pageopacity="0.0"
   inkscape:pagecheckerboard="0"
   inkscape:deskcolor="#d1d1d1"
   inkscape:zoom="1.5097656"
   inkscape:cx="256"
   inkscape:cy="255.66882"
   inkscape:window-width="1920"
   inkscape:window-height="1026"
   inkscape:window-x="0"
   inkscape:window-y="25"
   inkscape:window-maximized="1"
   inkscape:current-layer="Layer_1" />&#10;<g
   id="g2"
   style="fill:#ffffff">&#10;	<g
   id="g1"
   style="fill:#ffffff">&#10;		<path
   d="M459.058,447.362v-151.8h27.167v-31.347h-27.167H354.45v-50.688h32.095h9.906v-31.347h-23.17L329.396,78.457h-186.84    V33.291h-31.347v45.167H84.002L40.117,182.182h-19.81v31.347h6.547h31.067v233.833H0v31.347h512v-31.347H459.058z     M230.226,447.362h-43.788V337.358h43.788V447.362z M323.103,264.215v183.147h-61.531V306.011h-106.48v141.351H89.268V213.527    h233.836V264.215z M74.153,182.181l30.623-72.377h203.846l30.623,72.377H74.153z M427.711,447.362H354.45v-151.8h73.261V447.362z"
   id="path1"
   style="fill:#ffffff" />&#10;	</g>&#10;</g>&#10;<g
   id="g4"
   style="fill:#ffffff">&#10;	<g
   id="g3"
   style="fill:#ffffff">&#10;		<rect
   x="153.945"
   y="243.314"
   width="108.669"
   height="31.347"
   id="rect2"
   style="fill:#ffffff" />&#10;	</g>&#10;</g>&#10;</svg>
