<?xml version="1.0" encoding="UTF-8" standalone="no"?>
<!-- Uploaded to: SVG Repo, www.svgrepo.com, Generator: SVG Repo Mixer Tools -->

<svg
   fill="#000000"
   height="800px"
   width="800px"
   version="1.1"
   id="Layer_1"
   viewBox="0 0 512 512"
   xml:space="preserve"
   sodipodi:docname="hydrant-svgrepo-com.svg"
   inkscape:version="1.3 (0e150ed6c4, 2023-07-21)"
   xmlns:inkscape="http://www.inkscape.org/namespaces/inkscape"
   xmlns:sodipodi="http://sodipodi.sourceforge.net/DTD/sodipodi-0.dtd"
   xmlns="http://www.w3.org/2000/svg"
   xmlns:svg="http://www.w3.org/2000/svg"><defs
   id="defs4" /><sodipodi:namedview
   id="namedview4"
   pagecolor="#ffffff"
   bordercolor="#000000"
   borderopacity="0.25"
   inkscape:showpageshadow="2"
   inkscape:pageopacity="0.0"
   inkscape:pagecheckerboard="0"
   inkscape:deskcolor="#d1d1d1"
   inkscape:zoom="0.89"
   inkscape:cx="400"
   inkscape:cy="400"
   inkscape:window-width="1920"
   inkscape:window-height="1026"
   inkscape:window-x="0"
   inkscape:window-y="25"
   inkscape:window-maximized="1"
   inkscape:current-layer="Layer_1" />&#10;<g
   id="g2"
   style="fill:#ffffff">&#10;	<g
   id="g1"
   style="fill:#ffffff">&#10;		<path
   d="M438.429,243.141v-21.153h-31.347v21.153h-44.79v-70.03h6.375h25.124v-31.347H367.21    c-3.581-23.858-14.7-45.853-32.146-63.102c-17.345-17.148-39.31-27.983-63.054-31.351V0h-31.347v47.222    c-24,3.258-46.216,14.132-63.724,31.441c-17.447,17.248-28.565,39.244-32.146,63.102h-26.58v31.347h25.124h6.375v70.03h-44.79    v-21.154H73.574v21.153v40.137H45.592v31.347h27.98v35.999v25.292h31.347v-25.292h44.79v130.029h-26.69V512h26.69h212.583h26.689    v-31.347h-26.689V350.625h44.79v25.292h31.347v-25.292v-35.999h27.98v-31.348h-27.979V243.141z M149.709,319.278h-44.79v0V274.49    h44.79V319.278z M330.945,480.653h-149.89v-37.754h149.89V480.653z M181.055,411.552v-60.927V243.141v-70.03h149.89v70.03v107.482    v60.928H181.055z M176.658,141.764c7.847-36.595,40.602-64.236,79.342-64.236c38.741,0,71.495,27.642,79.342,64.236H176.658z     M407.082,319.278h-44.79v0V274.49h44.79V319.278z"
   id="path1"
   style="fill:#ffffff" />&#10;	</g>&#10;</g>&#10;<g
   id="g4"
   style="fill:#ffffff">&#10;	<g
   id="g3"
   style="fill:#ffffff">&#10;		<path
   d="M256.335,236.935c-29.12,0-52.811,23.69-52.811,52.81c0,29.12,23.691,52.811,52.811,52.811    c29.12,0,52.81-23.691,52.81-52.811C309.146,260.626,285.455,236.935,256.335,236.935z M256.335,311.209    c-11.836,0-21.464-9.629-21.464-21.464c0-11.834,9.629-21.463,21.464-21.463c11.836,0,21.463,9.629,21.463,21.463    C277.799,301.581,268.17,311.209,256.335,311.209z"
   id="path2"
   style="fill:#ffffff" />&#10;	</g>&#10;</g>&#10;</svg>
