<?xml version="1.0" encoding="UTF-8" standalone="no"?>
<!-- Uploaded to: SVG Repo, www.svgrepo.com, Generator: SVG Repo Mixer Tools -->

<svg
   fill="#000000"
   height="800px"
   width="800px"
   version="1.1"
   id="Layer_1"
   viewBox="0 0 512 512"
   xml:space="preserve"
   sodipodi:docname="stop-svgrepo-com.svg"
   inkscape:version="1.3 (0e150ed6c4, 2023-07-21)"
   xmlns:inkscape="http://www.inkscape.org/namespaces/inkscape"
   xmlns:sodipodi="http://sodipodi.sourceforge.net/DTD/sodipodi-0.dtd"
   xmlns="http://www.w3.org/2000/svg"
   xmlns:svg="http://www.w3.org/2000/svg"><defs
   id="defs10" /><sodipodi:namedview
   id="namedview10"
   pagecolor="#ffffff"
   bordercolor="#000000"
   borderopacity="0.25"
   inkscape:showpageshadow="2"
   inkscape:pageopacity="0.0"
   inkscape:pagecheckerboard="0"
   inkscape:deskcolor="#d1d1d1"
   inkscape:zoom="0.89"
   inkscape:cx="399.4382"
   inkscape:cy="400"
   inkscape:window-width="1920"
   inkscape:window-height="1026"
   inkscape:window-x="0"
   inkscape:window-y="25"
   inkscape:window-maximized="1"
   inkscape:current-layer="Layer_1" />&#10;<g
   id="g2"
   style="fill:#ffffff">&#10;	<g
   id="g1"
   style="fill:#ffffff">&#10;		<path
   d="M319.344,219.429l63.343-109.714L319.344,0H192.656l-63.343,109.714l63.343,109.714h47.67v261.224h-39.184V512h109.714    v-31.347h-39.184V219.429H319.344z M210.755,188.082l-45.245-78.367l45.245-78.367h90.492l45.245,78.367l-45.245,78.367H210.755z"
   id="path1"
   style="fill:#ffffff" />&#10;	</g>&#10;</g>&#10;<g
   id="g4"
   style="fill:#ffffff">&#10;	<g
   id="g3"
   style="fill:#ffffff">&#10;		<path
   d="M220.438,113.474c-0.517-1.169-1.252-2.165-2.206-2.984c-0.953-0.819-2.115-1.505-3.486-2.056    c-1.372-0.552-2.909-1.061-4.614-1.53c-1.238-0.333-2.325-0.634-3.26-0.903c-0.936-0.268-1.715-0.56-2.332-0.878    c-0.62-0.318-1.087-0.677-1.404-1.078c-0.319-0.401-0.476-0.903-0.476-1.505c0-1.973,1.471-2.959,4.414-2.959    c1.07,0,2.14,0.15,3.21,0.451c1.069,0.301,2.056,0.652,2.959,1.053s1.655,0.786,2.257,1.154c0.602,0.369,0.953,0.619,1.053,0.752    l3.611-6.821c-0.802-0.468-1.68-0.936-2.633-1.404c-0.953-0.468-1.981-0.886-3.085-1.254c-1.104-0.368-2.257-0.669-3.462-0.903    c-1.203-0.233-2.424-0.351-3.661-0.351c-1.772,0-3.453,0.251-5.041,0.752c-1.588,0.502-2.983,1.246-4.188,2.232    c-1.203,0.986-2.156,2.198-2.859,3.636c-0.702,1.438-1.053,3.093-1.053,4.965c0,1.337,0.192,2.508,0.578,3.511    c0.383,1.003,0.97,1.889,1.755,2.658c0.785,0.769,1.781,1.446,2.983,2.031c1.204,0.585,2.625,1.128,4.263,1.63    c1.237,0.369,2.382,0.702,3.436,1.003c1.053,0.301,1.964,0.627,2.733,0.978c0.768,0.351,1.371,0.744,1.806,1.179    s0.652,0.986,0.652,1.655c0,1.773-1.455,2.658-4.364,2.658c-1.372,0-2.725-0.183-4.063-0.552c-1.337-0.368-2.55-0.786-3.636-1.254    c-1.087-0.467-1.998-0.935-2.732-1.404c-0.737-0.468-1.171-0.785-1.304-0.953l-3.611,7.172c1.035,0.702,2.164,1.321,3.384,1.856    c1.22,0.535,2.484,0.996,3.787,1.379c1.304,0.384,2.642,0.677,4.013,0.878c1.37,0.201,2.708,0.301,4.012,0.301    c1.705,0,3.36-0.192,4.965-0.577c1.605-0.385,3.026-1.003,4.263-1.856c1.237-0.853,2.232-1.973,2.983-3.36    c0.753-1.387,1.128-3.085,1.128-5.091C221.215,116.049,220.956,114.645,220.438,113.474z"
   id="path2"
   style="fill:#ffffff" />&#10;	</g>&#10;</g>&#10;<g
   id="g6"
   style="fill:#ffffff">&#10;	<g
   id="g5"
   style="fill:#ffffff">&#10;		<polygon
   points="222.973,92.559 222.973,99.781 233.857,99.781 233.857,128.169 242.082,128.169 242.082,99.781 252.915,99.781     252.915,92.559   "
   id="polygon4"
   style="fill:#ffffff" />&#10;	</g>&#10;</g>&#10;<g
   id="g8"
   style="fill:#ffffff">&#10;	<g
   id="g7"
   style="fill:#ffffff">&#10;		<path
   d="M287.372,103.844c-0.837-2.173-2.024-4.113-3.562-5.818c-1.539-1.705-3.394-3.076-5.567-4.113    c-2.173-1.035-4.582-1.555-7.222-1.555c-2.576,0-4.949,0.494-7.122,1.48c-2.173,0.986-4.054,2.307-5.641,3.962    c-1.588,1.655-2.826,3.569-3.711,5.743c-0.887,2.174-1.329,4.43-1.329,6.771c0,2.307,0.426,4.547,1.279,6.721    c0.853,2.173,2.048,4.104,3.587,5.793c1.538,1.689,3.393,3.051,5.567,4.088c2.172,1.038,4.581,1.555,7.222,1.555    c2.574,0,4.948-0.502,7.121-1.505c2.173-1.003,4.046-2.332,5.617-3.987c1.572-1.655,2.8-3.568,3.686-5.743    c0.886-2.173,1.328-4.43,1.328-6.771C288.625,108.224,288.207,106.017,287.372,103.844z M279.672,114.251    c-0.385,1.287-0.962,2.441-1.73,3.461c-0.769,1.02-1.739,1.848-2.909,2.483c-1.17,0.635-2.541,0.953-4.113,0.953    c-1.505,0-2.843-0.301-4.012-0.903c-1.171-0.602-2.149-1.404-2.935-2.407c-0.786-1.003-1.378-2.148-1.78-3.436    c-0.401-1.287-0.602-2.616-0.602-3.987c0-1.336,0.193-2.65,0.578-3.937c0.383-1.287,0.97-2.432,1.755-3.436    s1.755-1.814,2.909-2.432c1.154-0.619,2.515-0.928,4.088-0.928c1.505,0,2.834,0.294,3.986,0.878    c1.154,0.585,2.132,1.372,2.935,2.357c0.802,0.986,1.404,2.123,1.806,3.411s0.602,2.616,0.602,3.987    C280.249,111.652,280.056,112.965,279.672,114.251z"
   id="path6"
   style="fill:#ffffff" />&#10;	</g>&#10;</g>&#10;<g
   id="g10"
   style="fill:#ffffff">&#10;	<g
   id="g9"
   style="fill:#ffffff">&#10;		<path
   d="M319.344,100.233c-0.585-1.438-1.388-2.725-2.407-3.862c-1.021-1.136-2.241-2.056-3.661-2.759    c-1.421-0.702-2.983-1.053-4.69-1.053h-15.197v35.61h8.225v-11.485h7.222c1.705,0,3.26-0.333,4.664-1.003    c1.405-0.669,2.6-1.572,3.587-2.708c0.985-1.136,1.755-2.424,2.307-3.862c0.551-1.437,0.828-2.941,0.828-4.514    C320.223,103.125,319.929,101.671,319.344,100.233z M310.844,108.258c-0.702,0.836-1.538,1.254-2.507,1.254h-6.722v-9.73h6.42    c0.467,0,0.936,0.092,1.404,0.276c0.467,0.184,0.886,0.476,1.254,0.878s0.659,0.903,0.878,1.505    c0.217,0.602,0.326,1.322,0.326,2.157C311.897,106.201,311.546,107.423,310.844,108.258z"
   id="path8"
   style="fill:#ffffff" />&#10;	</g>&#10;</g>&#10;</svg>
