<?xml version="1.0" encoding="UTF-8" standalone="no"?>
<!-- Created with Inkscape (http://www.inkscape.org/) -->

<svg
   width="230.71666mm"
   height="128.58749mm"
   viewBox="0 0 230.71666 128.58749"
   version="1.1"
   id="svg1"
   inkscape:version="1.3.2 (091e20ef0f, 2023-11-25, custom)"
   sodipodi:docname="deflection.svg"
   inkscape:export-filename="deflection2.png"
   inkscape:export-xdpi="96"
   inkscape:export-ydpi="96"
   xmlns:inkscape="http://www.inkscape.org/namespaces/inkscape"
   xmlns:sodipodi="http://sodipodi.sourceforge.net/DTD/sodipodi-0.dtd"
   xmlns="http://www.w3.org/2000/svg"
   xmlns:svg="http://www.w3.org/2000/svg">
  <sodipodi:namedview
     id="namedview1"
     pagecolor="#121212"
     bordercolor="#000000"
     borderopacity="0.25"
     inkscape:showpageshadow="2"
     inkscape:pageopacity="0.0"
     inkscape:pagecheckerboard="0"
     inkscape:deskcolor="#d1d1d1"
     inkscape:document-units="mm"
     inkscape:zoom="0.9814281"
     inkscape:cx="456.47766"
     inkscape:cy="192.06705"
     inkscape:window-width="1920"
     inkscape:window-height="1006"
     inkscape:window-x="2560"
     inkscape:window-y="0"
     inkscape:window-maximized="0"
     inkscape:current-layer="layer1" />
  <defs
     id="defs1">
    <marker
       style="overflow:visible"
       id="ArrowWide"
       refX="1"
       refY="0"
       orient="auto-start-reverse"
       inkscape:stockid="Wide arrow"
       markerWidth="0.80000001"
       markerHeight="0.80000001"
       viewBox="0 0 1 1"
       inkscape:isstock="true"
       inkscape:collect="always"
       preserveAspectRatio="xMidYMid">
      <path
         style="fill:none;stroke:context-stroke;stroke-width:1;stroke-linecap:butt"
         d="M 3,-3 0,0 3,3"
         transform="rotate(180,0.125,0)"
         sodipodi:nodetypes="ccc"
         id="path9" />
    </marker>
    <marker
       style="overflow:visible"
       id="Triangle"
       refX="0"
       refY="0"
       orient="auto-start-reverse"
       inkscape:stockid="Triangle arrow"
       markerWidth="1"
       markerHeight="1"
       viewBox="0 0 1 1"
       inkscape:isstock="true"
       inkscape:collect="always"
       preserveAspectRatio="xMidYMid">
      <path
         transform="scale(0.5)"
         style="fill:context-stroke;fill-rule:evenodd;stroke:context-stroke;stroke-width:1pt"
         d="M 5.77,0 -2.88,5 V -5 Z"
         id="path135" />
    </marker>
    <marker
       style="overflow:visible"
       id="Dot"
       refX="0"
       refY="0"
       orient="auto"
       inkscape:stockid="Dot"
       markerWidth="1"
       markerHeight="1"
       viewBox="0 0 1 1"
       inkscape:isstock="true"
       inkscape:collect="always"
       preserveAspectRatio="xMidYMid">
      <path
         transform="scale(0.5)"
         style="fill:context-stroke;fill-rule:evenodd;stroke:none"
         d="M 5,0 C 5,2.76 2.76,5 0,5 -2.76,5 -5,2.76 -5,0 c 0,-2.76 2.3,-5 5,-5 2.76,0 5,2.24 5,5 z"
         sodipodi:nodetypes="sssss"
         id="path17" />
    </marker>
    <marker
       style="overflow:visible"
       id="Triangle-1"
       refX="0"
       refY="0"
       orient="auto-start-reverse"
       inkscape:stockid="Triangle arrow"
       markerWidth="1"
       markerHeight="1"
       viewBox="0 0 1 1"
       inkscape:isstock="true"
       inkscape:collect="always"
       preserveAspectRatio="xMidYMid">
      <path
         transform="scale(0.5)"
         style="fill:context-stroke;fill-rule:evenodd;stroke:context-stroke;stroke-width:1pt"
         d="M 5.77,0 -2.88,5 V -5 Z"
         id="path135-2" />
    </marker>
  </defs>
  <g
     inkscape:label="Layer 1"
     inkscape:groupmode="layer"
     id="layer1"
     transform="translate(-0.68767927,0.34383963)">
    <path
       style="opacity:1;fill:none;fill-opacity:0;stroke:#f5f5f5;stroke-width:1.36;stroke-linecap:round;stroke-linejoin:round;stroke-miterlimit:3;marker-mid:url(#Dot);marker-end:url(#Dot);paint-order:stroke fill markers"
       d="M 26.299141,34.837532 H 107.81041"
       id="path1"
       sodipodi:nodetypes="cc" />
    <path
       style="display:inline;opacity:1;fill:none;fill-opacity:0;stroke:#f5f5f5;stroke-width:1.36;stroke-linecap:butt;stroke-linejoin:round;stroke-miterlimit:3;stroke-dasharray:2.72, 1.36;stroke-dashoffset:0;marker-end:url(#Triangle);paint-order:stroke fill markers"
       d="m 107.81041,34.837532 59.75495,55.43857"
       id="path2"
       sodipodi:nodetypes="cc"
       inkscape:transform-center-x="-29.784005"
       inkscape:transform-center-y="27.782186" />
    <path
       style="fill:none;fill-opacity:0;stroke:#f5f5f5;stroke-width:1.16;stroke-linecap:butt;stroke-linejoin:round;stroke-miterlimit:3;stroke-dasharray:none;stroke-dashoffset:0;marker-end:url(#Triangle-1);paint-order:stroke fill markers;opacity:0.4569184"
       d="m 107.87763,34.884194 81.51042,0.376244"
       id="path2-0"
       sodipodi:nodetypes="cc"
       inkscape:transform-center-x="-40.72896"
       inkscape:transform-center-y="0.29768645" />
    <g
       id="g9"
       inkscape:label="angle"
       style="display:none">
      <path
         style="opacity:1;fill:none;fill-opacity:0;stroke:#ffa500;stroke-width:1.365;stroke-linecap:butt;stroke-linejoin:round;stroke-miterlimit:3;stroke-dasharray:none;stroke-dashoffset:0;marker-end:url(#ArrowWide);paint-order:stroke fill markers"
         d="M 81.952642,40.452552 C 81.429312,53.33397 104.45127,63.625466 121.13119,55.827807"
         id="path3"
         sodipodi:nodetypes="cc" />
      <path
         style="opacity:1;fill:none;fill-opacity:0;stroke:#ffa500;stroke-width:1.338;stroke-linecap:butt;stroke-linejoin:round;stroke-miterlimit:3;stroke-dasharray:none;stroke-dashoffset:0;paint-order:stroke fill markers"
         d="m 60.810848,40.794821 h 43.640422 l 31.99227,29.681322"
         id="path4" />
      <text
         xml:space="preserve"
         style="font-weight:600;font-stretch:condensed;font-size:12.7px;line-height:1;font-family:'Barlow Condensed';-inkscape-font-specification:'Barlow Condensed, Semi-Bold Condensed';font-variant-ligatures:discretionary-ligatures;letter-spacing:0.60325px;word-spacing:0px;opacity:1;fill:#ffa500;fill-opacity:1;stroke:none;stroke-width:1.338;stroke-linecap:butt;stroke-linejoin:round;stroke-miterlimit:3;stroke-dasharray:none;stroke-dashoffset:0;paint-order:stroke fill markers"
         x="63.310589"
         y="77.092873"
         id="text4"><tspan
           sodipodi:role="line"
           id="tspan4"
           style="fill:#ffa500;fill-opacity:1;stroke:none;stroke-width:1.338"
           x="63.310589"
           y="77.092873">147° 30'</tspan></text>
    </g>
    <text
       xml:space="preserve"
       style="font-weight:600;font-stretch:condensed;font-size:12.7px;line-height:1;font-family:'Barlow Condensed';-inkscape-font-specification:'Barlow Condensed, Semi-Bold Condensed';font-variant-ligatures:discretionary-ligatures;letter-spacing:0.60325px;word-spacing:0px;fill:#ffa500;fill-opacity:1;stroke:none;stroke-width:1.338;stroke-linecap:butt;stroke-linejoin:round;stroke-miterlimit:3;stroke-dasharray:none;stroke-dashoffset:0;paint-order:stroke fill markers"
       x="166.4447"
       y="62.061146"
       id="text4-0"><tspan
         sodipodi:role="line"
         id="tspan4-6"
         style="fill:#ffa500;fill-opacity:1;stroke:none;stroke-width:1.338"
         x="166.4447"
         y="62.061146">32° 30'</tspan></text>
    <rect
       style="opacity:1;fill:none;fill-opacity:1;stroke:none;stroke-width:1.338;stroke-linecap:butt;stroke-linejoin:round;stroke-miterlimit:3;stroke-dasharray:none;stroke-dashoffset:0;paint-order:stroke fill markers"
       id="rect9"
       width="230.71666"
       height="128.58749"
       x="0.68767929"
       y="-0.34383962" />
    <path
       style="opacity:1;fill:none;fill-opacity:1;stroke:#ffa500;stroke-width:1.16;stroke-linecap:butt;stroke-linejoin:round;stroke-miterlimit:3;stroke-dasharray:none;stroke-dashoffset:0;paint-order:stroke fill markers"
       d="m 166.56611,41.071776 -42.88069,-0.413411 29.87747,27.719286"
       id="path10" />
    <path
       style="opacity:1;fill:none;fill-opacity:1;stroke:#ffa500;stroke-width:1.16;stroke-linecap:butt;stroke-linejoin:round;stroke-miterlimit:3;stroke-dasharray:none;stroke-dashoffset:0;paint-order:stroke fill markers;marker-end:url(#ArrowWide)"
       d="m 145.12576,40.86507 c 0.84965,5.382632 -0.44506,10.17413 -6.50161,13.652939"
       id="path11"
       sodipodi:nodetypes="cc" />
  </g>
</svg>
